{"uuid":"3a3d4ddb-51b8-4aa6-bff9-5925899067a7","historyId":"ba28db13d232c05d2f3821ef1d2342c8","fullName":"com.ReqRes.API.Automation.E01_Get_fetchUserList.valid_fetchTheUserList","labels":[{"name":"package","value":"com.ReqRes.API.Automation.E01_Get_fetchUserList"},{"name":"testClass","value":"com.ReqRes.API.Automation.E01_Get_fetchUserList"},{"name":"testMethod","value":"valid_fetchTheUserList"},{"name":"parentSuite","value":"Default Suite"},{"name":"suite","value":"Extend_API_AutomationProject"},{"name":"subSuite","value":"com.ReqRes.API.Automation.E01_Get_fetchUserList"},{"name":"host","value":"DESKTOP-KU9TGIV"},{"name":"thread","value":"11908@DESKTOP-KU9TGIV.main(1)"},{"name":"framework","value":"testng"},{"name":"language","value":"java"}],"links":[],"name":"valid_fetchTheUserList","status":"passed","statusDetails":{"known":false,"muted":false,"flaky":false},"stage":"finished","steps":[{"name":" Assert that the API response Time is less than or equal to \"2000\".","status":"passed","stage":"finished","steps":[{"name":"Get response time; 1642.","status":"passed","stage":"finished","steps":[],"attachments":[],"parameters":[],"start":1722988997682,"stop":1722988997682},{"name":"Assertion passed","status":"passed","stage":"finished","steps":[],"attachments":[],"parameters":[],"start":1722988997689,"stop":1722988997689}],"attachments":[],"parameters":[{"name":"Expected value","value":"2000","mode":"default"},{"name":"Actual value","value":"1642","mode":"default"},{"name":"Comparison type","value":"Less  than  or  equals","mode":"default"},{"name":"Validation","value":"Positive","mode":"default"}],"start":1722988997672,"stop":1722988997689},{"name":" Assert that the API response Body contains \"data\".","status":"passed","stage":"finished","steps":[{"name":"Assertion passed","status":"passed","stage":"finished","steps":[],"attachments":[],"parameters":[],"start":1722988997745,"stop":1722988997745}],"attachments":[{"name":"Validation Test Data - Expected Value","source":"0e02327c-8759-480d-aa7c-b9ab2a55cdb1-attachment"},{"name":"Validation Test Data - Actual Value","source":"952fb2dd-f3a4-40c9-8ae8-86ad03db75f9-attachment"}],"parameters":[{"name":"Expected value","value":"data","mode":"default"},{"name":"Actual value","value":"{\"page\":2,\"per_page\":6,\"total\":12,\"total_pages\":2,\"data\":[{\"id\":7,\"email\":\"michael.lawson@reqres.in\",\"first_name\":\"Michael\",\"last_name\":\"Lawson\",\"avatar\":\"https://reqres.in/img/faces/7-image.jpg\"},{\"id\":8,\"email\":\"lindsay.ferguson@reqres.in\",\"first_name\":\"Lindsay\",\"last_name\":\"Ferguson\",\"avatar\":\"https://reqres.in/img/faces/8-image.jpg\"},{\"id\":9,\"email\":\"tobias.funke@reqres.in\",\"first_name\":\"Tobias\",\"last_name\":\"Funke\",\"avatar\":\"https://reqres.in/img/faces/9-image.jpg\"},{\"id\":10,\"email\":\"byron.fields@reqres.in\",\"first_name\":\"Byron\",\"last_name\":\"Fields\",\"avatar\":\"https://reqres.in/img/faces/10-image.jpg\"},{\"id\":11,\"email\":\"george.edwards@reqres.in\",\"first_name\":\"George\",\"last_name\":\"Edwards\",\"avatar\":\"https://reqres.in/img/faces/11-image.jpg\"},{\"id\":12,\"email\":\"rachel.howell@reqres.in\",\"first_name\":\"Rachel\",\"last_name\":\"Howell\",\"avatar\":\"https://reqres.in/img/faces/12-image.jpg\"}],\"support\":{\"url\":\"https://reqres.in/#support-heading\",\"text\":\"To keep ReqRes free, contributions towards server costs are appreciated!\"}}","mode":"default"},{"name":"Comparison type","value":"Contains","mode":"default"},{"name":"Validation","value":"Positive","mode":"default"}],"start":1722988997695,"stop":1722988997745},{"name":"The Response body for fetching the user list is Not Null","status":"passed","stage":"finished","steps":[],"attachments":[],"parameters":[],"start":1722988997758,"stop":1722988997758},{"name":" Assert that the API response extracted value from the JSON path \"page\" is equal to \"2\".","status":"passed","stage":"finished","steps":[{"name":"Get response jsonvalue; page.","status":"passed","stage":"finished","steps":[],"attachments":[],"parameters":[],"start":1722988998509,"stop":1722988998509},{"name":"Assertion passed","status":"passed","stage":"finished","steps":[],"attachments":[],"parameters":[],"start":1722988998603,"stop":1722988998603}],"attachments":[],"parameters":[{"name":"Expected value","value":"2","mode":"default"},{"name":"Actual value","value":"2","mode":"default"},{"name":"Comparison type","value":"Equals","mode":"default"},{"name":"Validation","value":"Positive","mode":"default"}],"start":1722988997774,"stop":1722988998603}],"attachments":[{"name":"SHAFT Engine Logs - Current Method log: valid_fetchTheUserList","source":"141489c7-b85b-4dec-9b8c-d3ce55248414-attachment.txt","type":"text/plain"}],"parameters":[],"start":1722988993678,"stop":1722988998644}