{"uuid":"75b4e872-c540-45b5-ab6f-661cfd833e87","historyId":"ba28db13d232c05d2f3821ef1d2342c8","fullName":"com.ReqRes.API.Automation.E01_Get_fetchUserList.valid_fetchTheUserList","labels":[{"name":"package","value":"com.ReqRes.API.Automation.E01_Get_fetchUserList"},{"name":"testClass","value":"com.ReqRes.API.Automation.E01_Get_fetchUserList"},{"name":"testMethod","value":"valid_fetchTheUserList"},{"name":"parentSuite","value":"TestSuite"},{"name":"suite","value":"Fetch_UserList"},{"name":"subSuite","value":"com.ReqRes.API.Automation.E01_Get_fetchUserList"},{"name":"host","value":"DESKTOP-KU9TGIV"},{"name":"thread","value":"348@DESKTOP-KU9TGIV.main(1)"},{"name":"framework","value":"testng"},{"name":"language","value":"java"}],"links":[],"name":"Validate fetching user list on page 2 by GET method","status":"passed","statusDetails":{"known":false,"muted":false,"flaky":false},"stage":"finished","steps":[{"name":" Assert that the API response Time is less than or equal to \"2000\".","status":"passed","stage":"finished","steps":[{"name":"Get response time; 279.","status":"passed","stage":"finished","steps":[],"attachments":[],"parameters":[],"start":1723082051848,"stop":1723082051848},{"name":"Assertion passed","status":"passed","stage":"finished","steps":[],"attachments":[],"parameters":[],"start":1723082051851,"stop":1723082051851}],"attachments":[],"parameters":[{"name":"Expected value","value":"2000","mode":"default"},{"name":"Actual value","value":"279","mode":"default"},{"name":"Comparison type","value":"Less  than  or  equals","mode":"default"},{"name":"Validation","value":"Positive","mode":"default"}],"start":1723082051847,"stop":1723082051851},{"name":" Assert that the API response Body contains \"data\".","status":"passed","stage":"finished","steps":[{"name":"Assertion passed","status":"passed","stage":"finished","steps":[],"attachments":[],"parameters":[],"start":1723082051868,"stop":1723082051868}],"attachments":[{"name":"Validation Test Data - Expected Value","source":"3d83da20-4e66-4adc-967c-dfcd0a0b1c2a-attachment"},{"name":"Validation Test Data - Actual Value","source":"a6526a9f-20ed-443a-8da8-edead1be1baf-attachment"}],"parameters":[{"name":"Expected value","value":"data","mode":"default"},{"name":"Actual value","value":"{\"page\":2,\"per_page\":6,\"total\":12,\"total_pages\":2,\"data\":[{\"id\":7,\"email\":\"michael.lawson@reqres.in\",\"first_name\":\"Michael\",\"last_name\":\"Lawson\",\"avatar\":\"https://reqres.in/img/faces/7-image.jpg\"},{\"id\":8,\"email\":\"lindsay.ferguson@reqres.in\",\"first_name\":\"Lindsay\",\"last_name\":\"Ferguson\",\"avatar\":\"https://reqres.in/img/faces/8-image.jpg\"},{\"id\":9,\"email\":\"tobias.funke@reqres.in\",\"first_name\":\"Tobias\",\"last_name\":\"Funke\",\"avatar\":\"https://reqres.in/img/faces/9-image.jpg\"},{\"id\":10,\"email\":\"byron.fields@reqres.in\",\"first_name\":\"Byron\",\"last_name\":\"Fields\",\"avatar\":\"https://reqres.in/img/faces/10-image.jpg\"},{\"id\":11,\"email\":\"george.edwards@reqres.in\",\"first_name\":\"George\",\"last_name\":\"Edwards\",\"avatar\":\"https://reqres.in/img/faces/11-image.jpg\"},{\"id\":12,\"email\":\"rachel.howell@reqres.in\",\"first_name\":\"Rachel\",\"last_name\":\"Howell\",\"avatar\":\"https://reqres.in/img/faces/12-image.jpg\"}],\"support\":{\"url\":\"https://reqres.in/#support-heading\",\"text\":\"To keep ReqRes free, contributions towards server costs are appreciated!\"}}","mode":"default"},{"name":"Comparison type","value":"Contains","mode":"default"},{"name":"Validation","value":"Positive","mode":"default"}],"start":1723082051858,"stop":1723082051868},{"name":"The Response body for fetching the user list is Not Null","status":"passed","stage":"finished","steps":[],"attachments":[],"parameters":[],"start":1723082051869,"stop":1723082051869},{"name":" Assert that the API response extracted value from the JSON path \"page\" is equal to \"2\".","status":"passed","stage":"finished","steps":[{"name":"Get response jsonvalue; page.","status":"passed","stage":"finished","steps":[],"attachments":[],"parameters":[],"start":1723082052077,"stop":1723082052077},{"name":"Assertion passed","status":"passed","stage":"finished","steps":[],"attachments":[],"parameters":[],"start":1723082052309,"stop":1723082052309}],"attachments":[],"parameters":[{"name":"Expected value","value":"2","mode":"default"},{"name":"Actual value","value":"2","mode":"default"},{"name":"Comparison type","value":"Equals","mode":"default"},{"name":"Validation","value":"Positive","mode":"default"}],"start":1723082051874,"stop":1723082052310},{"name":" Assert that the API response extracted value from the JSON path \"total\" is equal to \"12\".","status":"passed","stage":"finished","steps":[{"name":"Get response jsonvalue; total.","status":"passed","stage":"finished","steps":[],"attachments":[],"parameters":[],"start":1723082052327,"stop":1723082052327},{"name":"Assertion passed","status":"passed","stage":"finished","steps":[],"attachments":[],"parameters":[],"start":1723082052331,"stop":1723082052331}],"attachments":[],"parameters":[{"name":"Expected value","value":"12","mode":"default"},{"name":"Actual value","value":"12","mode":"default"},{"name":"Comparison type","value":"Equals","mode":"default"},{"name":"Validation","value":"Positive","mode":"default"}],"start":1723082052315,"stop":1723082052331}],"attachments":[{"name":"SHAFT Engine Logs - Current Method log: valid_fetchTheUserList","source":"f3cd33f6-45ce-4351-b8e0-ed4042479f5b-attachment.txt","type":"text/plain"}],"parameters":[],"start":1723082051357,"stop":1723082052346}