
[0;7m------------------------------------------------------------------------------------------------------------------------------------------------
                                        Starting Execution: '2 out of 6' test cases in the current suite                                        
                              Test Method: 'com.ReqRes.API.Automation.E01_Get_fetchUserList.valid_fetchTheUserList'                              
                                     Test Description: 'Validate fetching user list on page 2 by GET method'                                     
------------------------------------------------------------------------------------------------------------------------------------------------
[0m
[ReportManager] Assert that the API response Time is less than or equal to "2000". @08-08-2024 04:54:11.0845 AM
[ReportManager] Get response time; 279. @08-08-2024 04:54:11.0848 AM
[ReportManager] Expected "2000", and actual "279" @08-08-2024 04:54:11.0849 AM
[ReportManager] Expected "2000", and actual "279" @08-08-2024 04:54:11.0849 AM
[ReportManager] Assertion passed @08-08-2024 04:54:11.0851 AM
[ReportManager] Assert that the API response Body contains "data". @08-08-2024 04:54:11.0857 AM
[ReportManager] Expected "data", and actual "{"page":2,"per_page":6,"total":12,"total_pages":2,"data":[{"id":7,"email":"michael.lawson@reqres.in","first_name":"Michael","last_name":"Lawson","avatar":"https://reqres.in/img/faces/7-image.jpg"},{"id":8,"email":"lindsay.ferguson@reqres.in","first_name":"Lindsay","last_name":"Ferguson","avatar":"https://reqres.in/img/faces/8-image.jpg"},{"id":9,"email":"tobias.funke@reqres.in","first_name":"Tobias","last_name":"Funke","avatar":"https://reqres.in/img/faces/9-image.jpg"},{"id":10,"email":"byron.fields@reqres.in","first_name":"Byron","last_name":"Fields","avatar":"https://reqres.in/img/faces/10-image.jpg"},{"id":11,"email":"george.edwards@reqres.in","first_name":"George","last_name":"Edwards","avatar":"https://reqres.in/img/faces/11-image.jpg"},{"id":12,"email":"rachel.howell@reqres.in","first_name":"Rachel","last_name":"Howell","avatar":"https://reqres.in/img/faces/12-image.jpg"}],"support":{"url":"https://reqres.in/#support-heading","text":"To keep ReqRes free, contributions towards server costs are appreciated!"}}" @08-08-2024 04:54:11.0859 AM
[ReportManager] Expected and Actual values are attached. @08-08-2024 04:54:11.0860 AM
[ReportManager] Successfully created attachment 'Validation Test Data - Expected Value' @08-08-2024 04:54:11.0863 AM
[ReportManager] Successfully created attachment 'Validation Test Data - Actual Value' @08-08-2024 04:54:11.0866 AM
[ReportManager] Expected "data", and actual "{"page":2,"per_page":6,"total":12,"total_pages":2,"data":[{"id":7,"email":"michael.lawson@reqres.in","first_name":"Michael","last_name":"Lawson","avatar":"https://reqres.in/img/faces/7-image.jpg"},{"id":8,"email":"lindsay.ferguson@reqres.in","first_name":"Lindsay","last_name":"Ferguson","avatar":"https://reqres.in/img/faces/8-image.jpg"},{"id":9,"email":"tobias.funke@reqres.in","first_name":"Tobias","last_name":"Funke","avatar":"https://reqres.in/img/faces/9-image.jpg"},{"id":10,"email":"byron.fields@reqres.in","first_name":"Byron","last_name":"Fields","avatar":"https://reqres.in/img/faces/10-image.jpg"},{"id":11,"email":"george.edwards@reqres.in","first_name":"George","last_name":"Edwards","avatar":"https://reqres.in/img/faces/11-image.jpg"},{"id":12,"email":"rachel.howell@reqres.in","first_name":"Rachel","last_name":"Howell","avatar":"https://reqres.in/img/faces/12-image.jpg"}],"support":{"url":"https://reqres.in/#support-heading","text":"To keep ReqRes free, contributions towards server costs are appreciated!"}}" @08-08-2024 04:54:11.0867 AM
[ReportManager] Assertion passed @08-08-2024 04:54:11.0868 AM
[ReportManager] The Response body for fetching the user list is Not Null @08-08-2024 04:54:11.0869 AM
[ReportManager] Assert that the API response extracted value from the JSON path "page" is equal to "2". @08-08-2024 04:54:11.0872 AM
[ReportManager] Get response jsonvalue; page. @08-08-2024 04:54:12.0077 AM
[ReportManager] Expected "2", and actual "2" @08-08-2024 04:54:12.0078 AM
[ReportManager] Expected "2", and actual "2" @08-08-2024 04:54:12.0300 AM
[ReportManager] Assertion passed @08-08-2024 04:54:12.0307 AM
[ReportManager] Assert that the API response extracted value from the JSON path "total" is equal to "12". @08-08-2024 04:54:12.0313 AM
[ReportManager] Get response jsonvalue; total. @08-08-2024 04:54:12.0325 AM
[ReportManager] Expected "12", and actual "12" @08-08-2024 04:54:12.0327 AM
[ReportManager] Expected "12", and actual "12" @08-08-2024 04:54:12.0328 AM
[ReportManager] Assertion passed @08-08-2024 04:54:12.0330 AM